{
  "name": "discussion.im",
  "version": 1,
  "public": false,
  "alias": ["discussion.im"],
  "env": {
    "NODE_ENV": "production",
    "MONGO_URL": "@app-mongo-url",
    "CLOUDINARY_URL": "@app-cloudinary-url",
    "MAILGUN_API_KEY": "@mailgun-api-key"
  }
}