{
  "appAdminEmail": "admin@discussion.im",
  "doNotReplyEmail": "do.not.reply@discussion.im",
  "complaintEmail": "feedback@discussion.im",
  "protocol": "https",
  "host": "discussion.im",
  "port": 80,
  "httpsPort": 443,
  "mongodb": "",
  "emailServer": {
    "domain": "mail.discussion.im"
  },
  "authentication": {
    "jwt": {
      "audience": "https://discussion.im"
    }
  }
}
